{
	"cinemas": [{
		"addr": "大兴区西红门镇京良路10号乐家购物中心B区3层",
		"cityId": 1,
		"dis": 26135.29193102891,
		"distance": "26.1km",
		"follow": 0,
		"id": 6057,
		"lat": 39.799633,
		"lng": 116.33217,
		"mark": 0,
		"nm": "星美国际影城(西红门店)",
		"poiId": 2490890,
		"price": 29,
		"promotion": {
			"cardPromotionTag": "开卡特惠，首单每张最高立减8元，张张都减！"
		},
		"referencePrice": "70",
		"score": 825.7143,
		"sellPrice": "29",
		"shopId": 9234215,
		"tag": {
			"allowRefund": 1,
			"buyout": 0,
			"deal": 0,
			"endorse": 1,
			"sell": 1,
			"snack": 0,
			"vipTag": "折扣卡"
		},
		"showPrice": true
	}, {
		"addr": "朝阳区安华西里甲1号",
		"cityId": 1,
		"dis": 11844.03000366347,
		"distance": "11.8km",
		"follow": 0,
		"id": 252,
		"lat": 39.96802,
		"lng": 116.40147,
		"mark": 0,
		"nm": "中国木偶艺术剧院",
		"poiId": 82596,
		"price": 23,
		"promotion": {},
		"referencePrice": "0",
		"score": 825,
		"sellPrice": "23",
		"shopId": 2007820,
		"tag": {
			"allowRefund": 1,
			"buyout": 0,
			"deal": 0,
			"endorse": 1,
			"sell": 1,
			"snack": 0
		},
		"showPrice": true
	}, {
		"addr": "朝阳区南杨庄路与武基街交叉口西南方向50米路南（垡头永辉超市，翠城馨园401号楼地下一层）",
		"cityId": 1,
		"dis": 26745.69666486545,
		"distance": "26.7km",
		"follow": 0,
		"id": 10954,
		"lat": 39.856857,
		"lng": 116.50524,
		"mark": 0,
		"nm": "大地影院(垡头永辉店)",
		"poiId": 41877507,
		"price": 34,
		"promotion": {
			"cardPromotionTag": "开卡特惠，首单每张最高立减8元，张张都减！"
		},
		"referencePrice": "0",
		"score": 825,
		"sellPrice": "34",
		"shopId": 18973569,
		"tag": {
			"allowRefund": 1,
			"buyout": 0,
			"deal": 0,
			"endorse": 1,
			"hallType": ["4DX厅", "4K厅"],
			"sell": 1,
			"snack": 0,
			"vipTag": "折扣卡"
		},
		"showPrice": true
	}, {
		"addr": "房山区广阳新路9号院1号楼中粮万科半岛购物广场3层",
		"cityId": 1,
		"dis": 31756.845607537583,
		"distance": "31.8km",
		"follow": 0,
		"id": 13028,
		"lat": 39.753548,
		"lng": 116.21099,
		"mark": 0,
		"nm": "幸福蓝海国际影城(北京房山店)",
		"poiId": 40470614,
		"price": 35,
		"promotion": {},
		"referencePrice": "0",
		"score": 824.65753,
		"sellPrice": "35",
		"shopId": 23090717,
		"tag": {
			"allowRefund": 0,
			"buyout": 0,
			"deal": 0,
			"endorse": 0,
			"hallType": ["杜比全景声厅", "60帧厅"],
			"sell": 1,
			"snack": 0
		},
		"showPrice": true
	}, {
		"addr": "朝阳区姚家园路甲1号活力东方奥特莱斯购物中心4楼（姚家园）",
		"cityId": 1,
		"dis": 22226.7343313531,
		"distance": "22.2km",
		"follow": 0,
		"id": 5987,
		"lat": 39.940395,
		"lng": 116.52246,
		"mark": 0,
		"nm": "嘉华国际影城(活力东方店)",
		"poiId": 2578227,
		"price": 34,
		"promotion": {},
		"referencePrice": "70",
		"score": 824.5283,
		"sellPrice": "34",
		"shopId": 8068247,
		"tag": {
			"allowRefund": 0,
			"buyout": 0,
			"deal": 0,
			"endorse": 0,
			"sell": 1,
			"snack": 0
		},
		"showPrice": true
	}, {
		"addr": "丰台区南三环西路16号凯德大峡谷购物中心5楼",
		"cityId": 1,
		"dis": 20821.821832749996,
		"distance": "20.8km",
		"follow": 0,
		"id": 42,
		"lat": 39.854645,
		"lng": 116.36706,
		"mark": 0,
		"nm": "保利国际影城(凯德MALL·大峡谷店)",
		"poiId": 339944,
		"price": 39,
		"promotion": {},
		"referencePrice": "40",
		"score": 824.138,
		"sellPrice": "39",
		"shopId": 3875275,
		"tag": {
			"allowRefund": 0,
			"buyout": 0,
			"deal": 0,
			"endorse": 0,
			"hallType": ["杜比全景声厅"],
			"sell": 1,
			"snack": 0
		},
		"showPrice": true
	}, {
		"addr": "朝阳区广顺北大街16号望京华彩商业中心B1a",
		"cityId": 1,
		"dis": 15292.409005060455,
		"distance": "15.3km",
		"follow": 0,
		"id": 72,
		"lat": 40.01051,
		"lng": 116.46821,
		"mark": 0,
		"nm": "新影联·华谊兄弟影院(望京店)",
		"poiId": 82583,
		"price": 34,
		"promotion": {
			"cardPromotionTag": "开卡特惠，首单每张最高立减8元，张张都减！"
		},
		"referencePrice": "80",
		"score": 824.03094,
		"sellPrice": "34",
		"shopId": 3463600,
		"tag": {
			"allowRefund": 1,
			"buyout": 0,
			"deal": 0,
			"endorse": 1,
			"hallType": [],
			"sell": 1,
			"snack": 0,
			"vipTag": "折扣卡"
		},
		"showPrice": true
	}, {
		"addr": "朝阳区工体北路13号世茂工三3楼，艾米·1895电影街（三里屯商圈）",
		"cityId": 1,
		"dis": 17248.227294135795,
		"distance": "17.2km",
		"follow": 0,
		"id": 13640,
		"lat": 39.93605,
		"lng": 116.44939,
		"mark": 0,
		"nm": "艾米·1895电影街",
		"poiId": 42853106,
		"price": 38,
		"promotion": {
			"cardPromotionTag": "开卡特惠，首单每张最高立减8元，张张都减！"
		},
		"referencePrice": "0",
		"score": 823.5294,
		"sellPrice": "38",
		"shopId": 22182457,
		"tag": {
			"allowRefund": 1,
			"buyout": 0,
			"deal": 0,
			"endorse": 1,
			"sell": 1,
			"snack": 0,
			"vipTag": "折扣卡"
		},
		"showPrice": true
	}, {
		"addr": "东城区金宝街88号金宝汇7层（地铁5号线灯市口站旁）",
		"cityId": 1,
		"dis": 17140.64160799303,
		"distance": "17.1km",
		"follow": 0,
		"id": 122,
		"lat": 39.9152,
		"lng": 116.42129,
		"mark": 0,
		"nm": "百丽宫影城(金宝汇店)",
		"poiId": 1076058,
		"price": 29,
		"promotion": {},
		"referencePrice": "80",
		"score": 822.5806,
		"sellPrice": "29",
		"shopId": 3088969,
		"tag": {
			"allowRefund": 0,
			"buyout": 0,
			"deal": 0,
			"endorse": 0,
			"sell": 1,
			"snack": 0
		},
		"showPrice": true
	}, {
		"addr": "丰台区榴乡路88号院石榴中心斯坦福广场B1层",
		"cityId": 1,
		"dis": 24018.835811416957,
		"distance": "24.0km",
		"follow": 0,
		"id": 16832,
		"lat": 39.84191,
		"lng": 116.423386,
		"mark": 0,
		"nm": "中影国际影城(石榴中心店)",
		"poiId": 150259374,
		"price": 24,
		"promotion": {
			"cardPromotionTag": "开卡特惠，首单每张最高立减8元，张张都减！"
		},
		"referencePrice": "0",
		"score": 820,
		"sellPrice": "24",
		"shopId": 77234913,
		"tag": {
			"allowRefund": 0,
			"buyout": 0,
			"deal": 0,
			"endorse": 0,
			"sell": 1,
			"snack": 0,
			"vipTag": "折扣卡"
		},
		"showPrice": true
	}, {
		"addr": "海淀区融科资讯中心B座-1-2",
		"cityId": 1,
		"dis": 6120.296309171248,
		"distance": "6.1km",
		"follow": 0,
		"id": 17421,
		"lat": 39.98487,
		"lng": 116.32656,
		"mark": 0,
		"nm": "太平洋影城(北京中关村店)",
		"poiId": 158401435,
		"price": 44,
		"promotion": {},
		"referencePrice": "0",
		"score": 820,
		"sellPrice": "44",
		"shopId": 91625813,
		"tag": {
			"allowRefund": 0,
			"buyout": 0,
			"deal": 0,
			"endorse": 0,
			"sell": 1,
			"snack": 0
		},
		"showPrice": true
	}, {
		"addr": "海淀区中关村大街15号中关村广场购物中心津乐汇3楼（地铁中关村站D口出西侧）",
		"cityId": 1,
		"dis": 5837.64350955046,
		"distance": "5.8km",
		"follow": 0,
		"id": 197,
		"lat": 39.983105,
		"lng": 116.31355,
		"mark": 0,
		"nm": "美嘉欢乐影城(中关村店)",
		"poiId": 279439,
		"price": 49,
		"promotion": {
			"cardPromotionTag": "开卡特惠，首单每张最高立减8元，张张都减！"
		},
		"referencePrice": "80",
		"score": 820,
		"sellPrice": "49",
		"shopId": 2202985,
		"tag": {
			"allowRefund": 1,
			"buyout": 0,
			"deal": 0,
			"endorse": 1,
			"sell": 1,
			"snack": 0,
			"vipTag": "折扣卡"
		},
		"showPrice": true
	}, {
		"addr": "通州区台湖镇定海园二里15号楼新城商厦4层",
		"cityId": 1,
		"dis": 34973.13354799491,
		"distance": "35.0km",
		"follow": 0,
		"id": 16680,
		"lat": 39.799076,
		"lng": 116.56583,
		"mark": 0,
		"nm": "华夏天合国际影城",
		"poiId": 131682620,
		"price": 33,
		"promotion": {},
		"referencePrice": "0",
		"score": 816.6667,
		"sellPrice": "33",
		"shopId": 76847724,
		"tag": {
			"allowRefund": 1,
			"buyout": 0,
			"deal": 0,
			"endorse": 1,
			"sell": 1,
			"snack": 0
		},
		"showPrice": true
	}, {
		"addr": "朝阳区七圣中街12号院爱琴海购物中心6层（近地铁13号线光熙门站）",
		"cityId": 1,
		"dis": 14091.479842162933,
		"distance": "14.1km",
		"follow": 0,
		"id": 7619,
		"lat": 39.97224,
		"lng": 116.436386,
		"mark": 0,
		"nm": "红星太平洋电影城(爱琴海购物中心店)",
		"poiId": 5948789,
		"price": 43,
		"promotion": {
			"cardPromotionTag": "开卡特惠，首单每张最高立减8元，张张都减！"
		},
		"referencePrice": "0",
		"score": 813.25305,
		"sellPrice": "43",
		"shopId": 14897187,
		"tag": {
			"allowRefund": 0,
			"buyout": 0,
			"deal": 0,
			"endorse": 0,
			"hallType": ["LUXE巨幕厅", "60帧厅"],
			"sell": 1,
			"snack": 0,
			"vipTag": "折扣卡"
		},
		"showPrice": true
	}, {
		"addr": "东城区崇外大街40号搜秀城9层",
		"cityId": 1,
		"dis": 18680.449974278403,
		"distance": "18.7km",
		"follow": 0,
		"id": 270,
		"lat": 39.896397,
		"lng": 116.419266,
		"mark": 0,
		"nm": "搜秀影城",
		"poiId": 82579,
		"price": 38,
		"promotion": {},
		"referencePrice": "80",
		"score": 812.5,
		"sellPrice": "38",
		"shopId": 1879417,
		"tag": {
			"allowRefund": 1,
			"buyout": 0,
			"deal": 0,
			"endorse": 1,
			"hallType": [],
			"sell": 1,
			"snack": 0
		},
		"showPrice": true
	}, {
		"addr": "丰台区靛场路千禧商业街4号楼",
		"cityId": 1,
		"dis": 15880.951744970114,
		"distance": "15.9km",
		"follow": 0,
		"id": 7634,
		"lat": 39.889786,
		"lng": 116.287766,
		"mark": 0,
		"nm": "中影国际影城(丰台千禧街店)",
		"poiId": 6458108,
		"price": 34.9,
		"promotion": {
			"cardPromotionTag": "开卡特惠，首单每张最高立减8元，张张都减！"
		},
		"referencePrice": "30",
		"score": 811.87494,
		"sellPrice": "34.9",
		"shopId": 8905548,
		"tag": {
			"allowRefund": 0,
			"buyout": 0,
			"deal": 0,
			"endorse": 0,
			"hallType": ["中国巨幕厅", "60帧厅"],
			"sell": 1,
			"snack": 0,
			"vipTag": "折扣卡"
		},
		"showPrice": true
	}, {
		"addr": "大兴区经济技术开发区荣京东街大族广场9号楼三层",
		"cityId": 1,
		"dis": 32883.88960833976,
		"distance": "32.9km",
		"follow": 0,
		"id": 16152,
		"lat": 39.790707,
		"lng": 116.51294,
		"mark": 0,
		"nm": "CGV星聚汇影城(亦庄店)",
		"poiId": 105355906,
		"price": 24,
		"promotion": {},
		"referencePrice": "0",
		"score": 811.1111,
		"sellPrice": "24",
		"shopId": 68937200,
		"tag": {
			"allowRefund": 0,
			"buyout": 0,
			"deal": 0,
			"endorse": 0,
			"hallType": ["60帧厅"],
			"sell": 1,
			"snack": 0
		},
		"showPrice": true
	}, {
		"addr": "通州区临河里33号楼华业玫瑰商业中心D2号楼三层",
		"cityId": 1,
		"dis": 37370.765311892465,
		"distance": "37.4km",
		"follow": 0,
		"id": 14634,
		"lat": 39.88119,
		"lng": 116.68255,
		"mark": 0,
		"nm": "耀莱成龙国际影城(临河里店)",
		"poiId": 92950934,
		"price": 33,
		"promotion": {},
		"referencePrice": "0",
		"score": 811.1111,
		"sellPrice": "33",
		"shopId": 57462444,
		"tag": {
			"allowRefund": 0,
			"buyout": 0,
			"deal": 0,
			"endorse": 0,
			"hallType": ["60帧厅"],
			"sell": 1,
			"snack": 0
		},
		"showPrice": true
	}, {
		"addr": "朝阳区东四环中路195号华腾新天地五层（近迪卡侬）",
		"cityId": 1,
		"dis": 23504.657130804848,
		"distance": "23.5km",
		"follow": 0,
		"id": 262,
		"lat": 39.885048,
		"lng": 116.48847,
		"mark": 0,
		"nm": "东都影城",
		"poiId": 30903,
		"price": 44,
		"promotion": {},
		"referencePrice": "43",
		"score": 806.8182,
		"sellPrice": "44",
		"shopId": 2241361,
		"tag": {
			"allowRefund": 0,
			"buyout": 0,
			"deal": 0,
			"endorse": 0,
			"hallType": ["巨幕厅"],
			"sell": 1,
			"snack": 0
		},
		"showPrice": true
	}, {
		"addr": "顺义区新顺南大街11号隆华购物中心6F",
		"cityId": 1,
		"dis": 32292.32580479781,
		"distance": "32.3km",
		"follow": 0,
		"id": 12394,
		"lat": 40.125973,
		"lng": 116.650536,
		"mark": 0,
		"nm": "大地影院(顺义隆华店)",
		"poiId": 41599879,
		"price": 44,
		"promotion": {
			"cardPromotionTag": "开卡特惠，首单每张最高立减8元，张张都减！"
		},
		"referencePrice": "0",
		"score": 806.6667,
		"sellPrice": "44",
		"shopId": 19438612,
		"tag": {
			"allowRefund": 1,
			"buyout": 0,
			"deal": 0,
			"endorse": 1,
			"sell": 1,
			"snack": 0,
			"vipTag": "折扣卡"
		},
		"showPrice": true
	}],
	"ct_pois": [{
		"ct_poi": "936879945111165696_a6057_c0",
		"poiid": 2490890
	}, {
		"ct_poi": "936879945111165696_a252_c1",
		"poiid": 82596
	}, {
		"ct_poi": "936879945111165696_a10954_c2",
		"poiid": 41877507
	}, {
		"ct_poi": "936879945111165696_a13028_c3",
		"poiid": 40470614
	}, {
		"ct_poi": "936879945111165696_a5987_c4",
		"poiid": 2578227
	}, {
		"ct_poi": "936879945111165696_a42_c5",
		"poiid": 339944
	}, {
		"ct_poi": "936879945111165696_a72_c6",
		"poiid": 82583
	}, {
		"ct_poi": "936879945111165696_a13640_c7",
		"poiid": 42853106
	}, {
		"ct_poi": "936879945111165696_a122_c8",
		"poiid": 1076058
	}, {
		"ct_poi": "936879945111165696_a16832_c9",
		"poiid": 150259374
	}, {
		"ct_poi": "936879945111165696_a17421_c10",
		"poiid": 158401435
	}, {
		"ct_poi": "936879945111165696_a197_c11",
		"poiid": 279439
	}, {
		"ct_poi": "936879945111165696_a16680_c12",
		"poiid": 131682620
	}, {
		"ct_poi": "936879945111165696_a7619_c13",
		"poiid": 5948789
	}, {
		"ct_poi": "936879945111165696_a270_c14",
		"poiid": 82579
	}, {
		"ct_poi": "936879945111165696_a7634_c15",
		"poiid": 6458108
	}, {
		"ct_poi": "936879945111165696_a16152_c16",
		"poiid": 105355906
	}, {
		"ct_poi": "936879945111165696_a14634_c17",
		"poiid": 92950934
	}, {
		"ct_poi": "936879945111165696_a262_c18",
		"poiid": 30903
	}, {
		"ct_poi": "936879945111165696_a12394_c19",
		"poiid": 41599879
	}],
	"paging": {
		"hasMore": true,
		"limit": 20,
		"offset": 40,
		"total": 198
	}
}