{
	"cinemas": [{
		"addr": "海淀区西四环北路金四季购物中心中段三层B003",
		"cityId": 1,
		"dis": 9917.2027503636,
		"distance": "9.9km",
		"follow": 0,
		"id": 13054,
		"lat": 39.94469,
		"lng": 116.27137,
		"mark": 0,
		"nm": "万画影城(四季青店)",
		"poiId": 41066531,
		"price": 28,
		"promotion": {},
		"referencePrice": "0",
		"score": 864.28577,
		"sellPrice": "28",
		"shopId": 23325693,
		"tag": {
			"allowRefund": 1,
			"buyout": 0,
			"deal": 0,
			"endorse": 1,
			"sell": 1,
			"snack": 0
		},
		"showPrice": true
	}, {
		"addr": "丰台区开阳路8号悦秀城6层",
		"cityId": 1,
		"dis": 19651.968315428432,
		"distance": "19.7km",
		"follow": 0,
		"id": 15859,
		"lat": 39.868313,
		"lng": 116.375984,
		"mark": 0,
		"nm": "DMG国际影城(悦秀店)",
		"poiId": 94444126,
		"price": 24,
		"promotion": {},
		"referencePrice": "0",
		"score": 862.5,
		"sellPrice": "24",
		"shopId": 66240192,
		"tag": {
			"allowRefund": 0,
			"buyout": 0,
			"deal": 0,
			"endorse": 0,
			"sell": 1,
			"snack": 0
		},
		"showPrice": true
	}, {
		"addr": "西城区虎坊路口南7号",
		"cityId": 1,
		"dis": 17913.4567692577,
		"distance": "17.9km",
		"follow": 0,
		"id": 237,
		"lat": 39.888065,
		"lng": 116.38378,
		"mark": 0,
		"nm": "工人俱乐部电影院",
		"poiId": 1436438,
		"price": 33,
		"promotion": {},
		"referencePrice": "60",
		"score": 860.00006,
		"sellPrice": "33",
		"shopId": 2412817,
		"tag": {
			"allowRefund": 1,
			"buyout": 0,
			"deal": 0,
			"endorse": 1,
			"sell": 1,
			"snack": 0
		},
		"showPrice": true
	}, {
		"addr": "西城区马连道路25号新年华生活购物广场5层",
		"cityId": 1,
		"dis": 17503.427467598987,
		"distance": "17.5km",
		"follow": 0,
		"id": 5278,
		"lat": 39.877544,
		"lng": 116.32643,
		"mark": 0,
		"nm": "耀莱成龙国际影城(马连道店)",
		"poiId": 2393654,
		"price": 41,
		"promotion": {},
		"referencePrice": "70",
		"score": 858.3333,
		"sellPrice": "41",
		"shopId": 8075953,
		"tag": {
			"allowRefund": 0,
			"buyout": 0,
			"deal": 0,
			"endorse": 0,
			"sell": 1,
			"snack": 0
		},
		"showPrice": true
	}, {
		"addr": "石景山区石景山路乙18号万达广场娱乐楼4楼",
		"cityId": 1,
		"dis": 15137.56205019949,
		"distance": "15.1km",
		"follow": 0,
		"id": 133,
		"lat": 39.905945,
		"lng": 116.22568,
		"mark": 0,
		"nm": "万达国际影城(石景山店)",
		"poiId": 298683,
		"price": 43,
		"promotion": {
			"cardPromotionTag": "开卡特惠，首单每张最高立减8元，张张都减！"
		},
		"referencePrice": "80",
		"score": 851.28204,
		"sellPrice": "43",
		"shopId": 2908582,
		"tag": {
			"allowRefund": 1,
			"buyout": 0,
			"deal": 0,
			"endorse": 0,
			"hallType": ["IMAX厅", "4DX厅"],
			"sell": 1,
			"snack": 0,
			"vipTag": "折扣卡"
		},
		"showPrice": true
	}, {
		"addr": "东城区王府井大街301号新燕莎购物中心地下一层西侧（地铁一号线王府井站出C2口向北步行200米路西）",
		"cityId": 1,
		"dis": 17092.062332479494,
		"distance": "17.1km",
		"follow": 0,
		"id": 10781,
		"lat": 39.90959,
		"lng": 116.41121,
		"mark": 0,
		"nm": "耀莱成龙国际影城(王府井店)",
		"poiId": 6074394,
		"price": 33,
		"promotion": {},
		"referencePrice": "0",
		"score": 846,
		"sellPrice": "33",
		"shopId": 18693187,
		"tag": {
			"allowRefund": 0,
			"buyout": 0,
			"deal": 0,
			"endorse": 0,
			"hallType": ["60帧厅"],
			"sell": 1,
			"snack": 0
		},
		"showPrice": true
	}, {
		"addr": "大兴区金星西路3号绿地缤纷城购物中心4层",
		"cityId": 1,
		"dis": 29996.330201856304,
		"distance": "30.0km",
		"follow": 0,
		"id": 2392,
		"lat": 39.764736,
		"lng": 116.33353,
		"mark": 0,
		"nm": "保利国际影城(绿地缤纷城店)",
		"poiId": 1481117,
		"price": 34,
		"promotion": {},
		"referencePrice": "70",
		"score": 845.9017,
		"sellPrice": "34",
		"shopId": 4523269,
		"tag": {
			"allowRefund": 0,
			"buyout": 0,
			"deal": 0,
			"endorse": 0,
			"hallType": [],
			"sell": 1,
			"snack": 0
		},
		"showPrice": true
	}, {
		"addr": "朝阳区北三环东路22号（和平东桥，和平东街，樱花东街）",
		"cityId": 1,
		"dis": 13363.105432763645,
		"distance": "13.4km",
		"follow": 0,
		"id": 256,
		"lat": 39.96894,
		"lng": 116.42397,
		"mark": 0,
		"nm": "金鸡百花影城",
		"poiId": 89000,
		"price": 40,
		"promotion": {},
		"referencePrice": "30",
		"score": 845,
		"sellPrice": "40",
		"shopId": 1767790,
		"tag": {
			"allowRefund": 1,
			"buyout": 0,
			"deal": 0,
			"endorse": 1,
			"hallType": ["杜比全景声厅", "60帧厅"],
			"sell": 1,
			"snack": 0,
			"vipTag": "满赠卡"
		},
		"showPrice": true
	}, {
		"addr": "海淀区双榆树科学院南路44号（双安商场对面）",
		"cityId": 1,
		"dis": 7809.4249213163275,
		"distance": "7.8km",
		"follow": 0,
		"id": 155,
		"lat": 39.967793,
		"lng": 116.326096,
		"mark": 0,
		"nm": "UME国际影城(华星店)",
		"poiId": 1436373,
		"price": 39.5,
		"promotion": {
			"cardPromotionTag": "开卡特惠，首单每张最高立减8元，张张都减！"
		},
		"referencePrice": "70",
		"score": 844.55444,
		"sellPrice": "39.5",
		"shopId": 1767676,
		"tag": {
			"allowRefund": 0,
			"buyout": 0,
			"deal": 0,
			"endorse": 0,
			"hallType": ["IMAX厅", "中国巨幕厅"],
			"sell": 1,
			"snack": 0,
			"vipTag": "折扣卡"
		},
		"showPrice": true
	}, {
		"addr": "丰台区果园8号楼（木樨园桥西南角）合生广场6层",
		"cityId": 1,
		"dis": 21652.90036248752,
		"distance": "21.7km",
		"follow": 0,
		"id": 15070,
		"lat": 39.85595,
		"lng": 116.397896,
		"mark": 0,
		"nm": "大地影院(大红门合生广场店)",
		"poiId": 78978010,
		"price": 34,
		"promotion": {
			"cardPromotionTag": "开卡特惠，首单每张最高立减8元，张张都减！"
		},
		"referencePrice": "0",
		"score": 843.75,
		"sellPrice": "34",
		"shopId": 33577938,
		"tag": {
			"allowRefund": 1,
			"buyout": 0,
			"deal": 0,
			"endorse": 1,
			"sell": 1,
			"snack": 0,
			"vipTag": "折扣卡"
		},
		"showPrice": true
	}, {
		"addr": "东城区东打磨厂街7号新活馆B1层",
		"cityId": 1,
		"dis": 18115.200849074998,
		"distance": "18.1km",
		"follow": 0,
		"id": 16605,
		"lat": 39.89956,
		"lng": 116.41363,
		"mark": 0,
		"nm": "传奇奢华影城",
		"poiId": 1460422,
		"price": 37,
		"promotion": {
			"cardPromotionTag": "开卡特惠，首单每张最高立减8元，张张都减！"
		},
		"referencePrice": "0",
		"score": 842.8572,
		"sellPrice": "37",
		"shopId": 5696134,
		"tag": {
			"allowRefund": 1,
			"buyout": 0,
			"deal": 0,
			"endorse": 1,
			"sell": 1,
			"snack": 0,
			"vipTag": "折扣卡"
		},
		"showPrice": true
	}, {
		"addr": "通州区八通线土桥地铁站向东900米华远好天地购物中心3层（迪卡侬通州店）",
		"cityId": 1,
		"dis": 39087.46006741373,
		"distance": "39.1km",
		"follow": 0,
		"id": 14381,
		"lat": 39.86987,
		"lng": 116.697586,
		"mark": 0,
		"nm": "博纳国际影城(通州土桥店)",
		"poiId": 51455681,
		"price": 33,
		"promotion": {
			"cardPromotionTag": "开卡特惠，首单每张最高立减8元，张张都减！"
		},
		"referencePrice": "0",
		"score": 838.8889,
		"sellPrice": "33",
		"shopId": 24902472,
		"tag": {
			"allowRefund": 0,
			"buyout": 0,
			"deal": 0,
			"endorse": 0,
			"hallType": ["中国巨幕厅", "杜比全景声厅"],
			"sell": 1,
			"snack": 0,
			"vipTag": "折扣卡"
		},
		"showPrice": true
	}, {
		"addr": "海淀区远大路1号院B座五楼西侧001号（居然之家材料馆楼上）",
		"cityId": 1,
		"dis": 8022.413896912622,
		"distance": "8.0km",
		"follow": 0,
		"id": 17304,
		"lat": 39.960518,
		"lng": 116.28797,
		"mark": 0,
		"nm": "魔影国际影城(金源店)",
		"poiId": 156803662,
		"price": 43,
		"promotion": {
			"cardPromotionTag": "开卡特惠，首单每张最高立减8元，张张都减！"
		},
		"referencePrice": "0",
		"score": 838.4615,
		"sellPrice": "43",
		"shopId": 90039204,
		"tag": {
			"allowRefund": 1,
			"buyout": 0,
			"deal": 0,
			"endorse": 1,
			"hallType": ["杜比全景声厅"],
			"sell": 1,
			"snack": 0,
			"vipTag": "折扣卡"
		},
		"showPrice": true
	}, {
		"addr": "西城区西单北大街131号大悦城10楼（近西单苹果店）",
		"cityId": 1,
		"dis": 15283.462655456304,
		"distance": "15.3km",
		"follow": 0,
		"id": 149,
		"lat": 39.91066,
		"lng": 116.373665,
		"mark": 0,
		"nm": "首都电影院(西单店)",
		"poiId": 283722,
		"price": 44,
		"promotion": {},
		"referencePrice": "60",
		"score": 836.4865,
		"sellPrice": "44",
		"shopId": 2407390,
		"tag": {
			"allowRefund": 0,
			"buyout": 0,
			"deal": 0,
			"endorse": 0,
			"hallType": ["60帧厅"],
			"sell": 1,
			"snack": 0
		},
		"showPrice": true
	}, {
		"addr": "海淀区学清路甲8号圣熙8号购物中心5层西侧（学清路）",
		"cityId": 1,
		"dis": 5993.386235691123,
		"distance": "6.0km",
		"follow": 0,
		"id": 70,
		"lat": 40.008587,
		"lng": 116.35387,
		"mark": 0,
		"nm": "嘉华国际影城(学清路店)",
		"poiId": 84440,
		"price": 39,
		"promotion": {},
		"referencePrice": "70",
		"score": 834.88367,
		"sellPrice": "39",
		"shopId": 4211150,
		"tag": {
			"allowRefund": 0,
			"buyout": 0,
			"deal": 0,
			"endorse": 0,
			"sell": 1,
			"snack": 0
		},
		"showPrice": true
	}, {
		"addr": "大兴区黄村西大街15号",
		"cityId": 1,
		"dis": 33620.687534332086,
		"distance": "33.6km",
		"follow": 0,
		"id": 179,
		"lat": 39.7323,
		"lng": 116.338005,
		"mark": 0,
		"nm": "大兴影剧院",
		"poiId": 324698,
		"price": 33,
		"promotion": {},
		"referencePrice": "21",
		"score": 834.375,
		"sellPrice": "33",
		"shopId": 1767607,
		"tag": {
			"allowRefund": 1,
			"buyout": 0,
			"deal": 0,
			"endorse": 1,
			"sell": 1,
			"snack": 0
		},
		"showPrice": true
	}, {
		"addr": "房山区兴房大街38号华冠欢乐城四楼",
		"cityId": 1,
		"dis": 45798.0538087663,
		"distance": "45.8km",
		"follow": 0,
		"id": 9370,
		"lat": 39.69285,
		"lng": 115.98708,
		"mark": 0,
		"nm": "环球国际影城(北京房山店)",
		"poiId": 5252975,
		"price": 23,
		"promotion": {},
		"referencePrice": "0",
		"score": 834.1463,
		"sellPrice": "23",
		"shopId": 21601900,
		"tag": {
			"allowRefund": 0,
			"buyout": 0,
			"deal": 0,
			"endorse": 0,
			"sell": 1,
			"snack": 0,
			"vipTag": "折扣卡"
		},
		"showPrice": true
	}, {
		"addr": "朝阳区东三环中路65号富力广场6楼（双井桥北）",
		"cityId": 1,
		"dis": 20788.750888858405,
		"distance": "20.8km",
		"follow": 0,
		"id": 135,
		"lat": 39.89768,
		"lng": 116.45983,
		"mark": 0,
		"nm": "UME国际影城(双井店)",
		"poiId": 291070,
		"price": 39.5,
		"promotion": {
			"cardPromotionTag": "开卡特惠，首单每张最高立减8元，张张都减！"
		},
		"referencePrice": "70",
		"score": 833.89825,
		"sellPrice": "39.5",
		"shopId": 2648068,
		"tag": {
			"allowRefund": 0,
			"buyout": 0,
			"deal": 0,
			"endorse": 0,
			"hallType": ["中国巨幕厅", "RealD厅"],
			"sell": 1,
			"snack": 0,
			"vipTag": "折扣卡"
		},
		"showPrice": true
	}, {
		"addr": "海淀区田村路43号京粮广场二层北侧",
		"cityId": 1,
		"dis": 11785.258104756173,
		"distance": "11.8km",
		"follow": 0,
		"id": 16821,
		"lat": 39.93043,
		"lng": 116.2541,
		"mark": 0,
		"nm": "万画影城(田村店)",
		"poiId": 97764971,
		"price": 29,
		"promotion": {},
		"referencePrice": "0",
		"score": 833.3333,
		"sellPrice": "29",
		"shopId": 62248491,
		"tag": {
			"allowRefund": 1,
			"buyout": 0,
			"deal": 0,
			"endorse": 1,
			"sell": 1,
			"snack": 0
		},
		"showPrice": true
	}, {
		"addr": "东城区东长安街1号东方广场地下1层",
		"cityId": 1,
		"dis": 17359.09345701096,
		"distance": "17.4km",
		"follow": 0,
		"id": 269,
		"lat": 39.90987,
		"lng": 116.41683,
		"mark": 0,
		"nm": "百老汇影城(东方广场店)",
		"poiId": 271409,
		"price": 29,
		"promotion": {},
		"referencePrice": "40",
		"score": 833.3333,
		"sellPrice": "29",
		"shopId": 1767619,
		"tag": {
			"allowRefund": 0,
			"buyout": 0,
			"deal": 0,
			"endorse": 0,
			"hallType": ["RealD厅", "60帧厅"],
			"sell": 1,
			"snack": 0
		},
		"showPrice": true
	}],
	"ct_pois": [{
		"ct_poi": "936879945111165696_a13054_c0",
		"poiid": 41066531
	}, {
		"ct_poi": "936879945111165696_a15859_c1",
		"poiid": 94444126
	}, {
		"ct_poi": "936879945111165696_a237_c2",
		"poiid": 1436438
	}, {
		"ct_poi": "936879945111165696_a5278_c3",
		"poiid": 2393654
	}, {
		"ct_poi": "936879945111165696_a133_c4",
		"poiid": 298683
	}, {
		"ct_poi": "936879945111165696_a10781_c5",
		"poiid": 6074394
	}, {
		"ct_poi": "936879945111165696_a2392_c6",
		"poiid": 1481117
	}, {
		"ct_poi": "936879945111165696_a256_c7",
		"poiid": 89000
	}, {
		"ct_poi": "936879945111165696_a155_c8",
		"poiid": 1436373
	}, {
		"ct_poi": "936879945111165696_a15070_c9",
		"poiid": 78978010
	}, {
		"ct_poi": "936879945111165696_a16605_c10",
		"poiid": 1460422
	}, {
		"ct_poi": "936879945111165696_a14381_c11",
		"poiid": 51455681
	}, {
		"ct_poi": "936879945111165696_a17304_c12",
		"poiid": 156803662
	}, {
		"ct_poi": "936879945111165696_a149_c13",
		"poiid": 283722
	}, {
		"ct_poi": "936879945111165696_a70_c14",
		"poiid": 84440
	}, {
		"ct_poi": "936879945111165696_a179_c15",
		"poiid": 324698
	}, {
		"ct_poi": "936879945111165696_a9370_c16",
		"poiid": 5252975
	}, {
		"ct_poi": "936879945111165696_a135_c17",
		"poiid": 291070
	}, {
		"ct_poi": "936879945111165696_a16821_c18",
		"poiid": 97764971
	}, {
		"ct_poi": "936879945111165696_a269_c19",
		"poiid": 271409
	}],
	"paging": {
		"hasMore": true,
		"limit": 20,
		"offset": 20,
		"total": 198
	}
}